EESchema Schematic File Version 2
LIBS:power
LIBS:device
LIBS:transistors
LIBS:conn
LIBS:linear
LIBS:regul
LIBS:74xx
LIBS:cmos4000
LIBS:adc-dac
LIBS:memory
LIBS:xilinx
LIBS:microcontrollers
LIBS:dsp
LIBS:microchip
LIBS:analog_switches
LIBS:motorola
LIBS:texas
LIBS:intel
LIBS:audio
LIBS:interface
LIBS:digital-audio
LIBS:philips
LIBS:display
LIBS:cypress
LIBS:siliconi
LIBS:opto
LIBS:atmel
LIBS:contrib
LIBS:valves
LIBS:pololu_a4988
LIBS:arduino
LIBS:L298
LIBS:reg_sw
LIBS:ff-cache
EELAYER 25 0
EELAYER END
$Descr A4 11693 8268
encoding utf-8
Sheet 1 1
Title "Modulo de Adquisición - FPT"
Date "2016-07-04"
Rev "2.0"
Comp "Infiniem Labs"
Comment1 "Martín Viggiano"
Comment2 ""
Comment3 ""
Comment4 ""
$EndDescr
$Comp
L POLOLU_A4988 U1
U 1 1 577089BE
P 2850 2100
F 0 "U1" H 2850 2550 60  0000 C CNN
F 1 "POLOLU_A4988" V 2850 2100 50  0000 C CNN
F 2 "POLOLU:Pololu_A4988" H 2850 2100 60  0001 C CNN
F 3 "" H 2850 2100 60  0000 C CNN
	1    2850 2100
	1    0    0    -1  
$EndComp
$Comp
L GND #PWR01
U 1 1 57708B27
P 2250 1750
F 0 "#PWR01" H 2250 1500 50  0001 C CNN
F 1 "GND" H 2250 1600 50  0000 C CNN
F 2 "" H 2250 1750 50  0000 C CNN
F 3 "" H 2250 1750 50  0000 C CNN
	1    2250 1750
	0    1    1    0   
$EndComp
$Comp
L GND #PWR02
U 1 1 57708B42
P 2250 2350
F 0 "#PWR02" H 2250 2100 50  0001 C CNN
F 1 "GND" H 2250 2200 50  0000 C CNN
F 2 "" H 2250 2350 50  0000 C CNN
F 3 "" H 2250 2350 50  0000 C CNN
	1    2250 2350
	0    1    1    0   
$EndComp
$Comp
L +5V #PWR03
U 1 1 57708B55
P 2250 1850
F 0 "#PWR03" H 2250 1700 50  0001 C CNN
F 1 "+5V" H 2250 1990 50  0000 C CNN
F 2 "" H 2250 1850 50  0000 C CNN
F 3 "" H 2250 1850 50  0000 C CNN
	1    2250 1850
	0    -1   -1   0   
$EndComp
$Comp
L +5V #PWR04
U 1 1 57796362
P 5300 1100
F 0 "#PWR04" H 5300 950 50  0001 C CNN
F 1 "+5V" H 5300 1240 50  0000 C CNN
F 2 "" H 5300 1100 50  0000 C CNN
F 3 "" H 5300 1100 50  0000 C CNN
	1    5300 1100
	0    -1   -1   0   
$EndComp
$Comp
L GND #PWR05
U 1 1 5779639E
P 5300 1350
F 0 "#PWR05" H 5300 1100 50  0001 C CNN
F 1 "GND" H 5300 1200 50  0000 C CNN
F 2 "" H 5300 1350 50  0000 C CNN
F 3 "" H 5300 1350 50  0000 C CNN
	1    5300 1350
	0    1    1    0   
$EndComp
$Comp
L GND #PWR06
U 1 1 577963BC
P 5300 1450
F 0 "#PWR06" H 5300 1200 50  0001 C CNN
F 1 "GND" H 5300 1300 50  0000 C CNN
F 2 "" H 5300 1450 50  0000 C CNN
F 3 "" H 5300 1450 50  0000 C CNN
	1    5300 1450
	0    1    1    0   
$EndComp
$Comp
L +3.3V #PWR07
U 1 1 577963D1
P 5300 1200
F 0 "#PWR07" H 5300 1050 50  0001 C CNN
F 1 "+3.3V" H 5300 1340 50  0000 C CNN
F 2 "" H 5300 1200 50  0000 C CNN
F 3 "" H 5300 1200 50  0000 C CNN
	1    5300 1200
	0    -1   -1   0   
$EndComp
Text GLabel 3450 1750 2    60   Input ~ 0
POL_DIR
$Comp
L ARDUINO_NANO SHIELD1
U 1 1 57796CE9
P 5500 2650
F 0 "SHIELD1" V 5800 3500 60  0000 C CNN
F 1 "ARDUINO_NANO" V 5950 3500 60  0000 C CNN
F 2 "Arduino_Shield:Arduino_Nano_Shield" H 5500 2650 60  0001 C CNN
F 3 "" H 5500 2650 60  0000 C CNN
	1    5500 2650
	1    0    0    -1  
$EndComp
$Comp
L CONN_01X04 P4
U 1 1 577AFCB9
P 1850 2100
F 0 "P4" H 1850 2350 50  0000 C CNN
F 1 "CONN_PAP" V 1950 2100 50  0000 C CNN
F 2 "Connectors_Molex:Molex_KK-6410-04_04x2.54mm_Straight" H 1850 2100 50  0001 C CNN
F 3 "" H 1850 2100 50  0000 C CNN
	1    1850 2100
	-1   0    0    1   
$EndComp
Wire Wire Line
	2050 1950 2250 1950
Wire Wire Line
	2050 2050 2250 2050
Wire Wire Line
	2050 2150 2250 2150
Wire Wire Line
	2050 2250 2250 2250
Text Label 2050 1950 0    60   ~ 0
1B
Text Label 2050 2050 0    60   ~ 0
1A
Text Label 2050 2150 0    60   ~ 0
2A
Text Label 2050 2250 0    60   ~ 0
2B
Text GLabel 3450 1850 2    60   Input ~ 0
POL_STEP
Text GLabel 3450 2450 2    60   Input ~ 0
POL_ENA
Wire Wire Line
	3450 1950 3450 2050
$Comp
L CONN_01X02 P6
U 1 1 577AFECD
P 2350 2750
F 0 "P6" H 2350 2900 50  0000 C CNN
F 1 "CONN_01X02" V 2450 2750 50  0000 C CNN
F 2 "Pin_Headers:Pin_Header_Straight_1x02" H 2350 2750 50  0001 C CNN
F 3 "" H 2350 2750 50  0000 C CNN
	1    2350 2750
	0    -1   -1   0   
$EndComp
$Comp
L CONN_01X02 P9
U 1 1 577AFF6A
P 2850 2750
F 0 "P9" H 2850 2900 50  0000 C CNN
F 1 "CONN_01X02" V 2950 2750 50  0000 C CNN
F 2 "Pin_Headers:Pin_Header_Straight_1x02" H 2850 2750 50  0001 C CNN
F 3 "" H 2850 2750 50  0000 C CNN
	1    2850 2750
	0    -1   -1   0   
$EndComp
$Comp
L CONN_01X02 P12
U 1 1 577AFFA1
P 3350 2750
F 0 "P12" H 3350 2900 50  0000 C CNN
F 1 "CONN_01X02" V 3450 2750 50  0000 C CNN
F 2 "Pin_Headers:Pin_Header_Straight_1x02" H 3350 2750 50  0001 C CNN
F 3 "" H 3350 2750 50  0000 C CNN
	1    3350 2750
	0    -1   -1   0   
$EndComp
Text GLabel 3450 2350 2    60   Input ~ 0
MS1
Text GLabel 3450 2250 2    60   Input ~ 0
MS2
Text GLabel 3450 2150 2    60   Input ~ 0
MS3
Text GLabel 2300 2950 3    60   Input ~ 0
MS1
Text GLabel 2800 2950 3    60   Input ~ 0
MS2
Text GLabel 3300 2950 3    60   Input ~ 0
MS3
$Comp
L +12V #PWR08
U 1 1 577B03B4
P 2250 2450
F 0 "#PWR08" H 2250 2300 50  0001 C CNN
F 1 "+12V" H 2250 2590 50  0000 C CNN
F 2 "" H 2250 2450 50  0000 C CNN
F 3 "" H 2250 2450 50  0000 C CNN
	1    2250 2450
	0    -1   -1   0   
$EndComp
$Comp
L CONN_01X02 P8
U 1 1 577B0520
P 6300 4950
F 0 "P8" H 6300 5100 50  0000 C CNN
F 1 "CONN_01X02" V 6400 4950 50  0000 C CNN
F 2 "Connect:bornier2" H 6300 4950 50  0001 C CNN
F 3 "" H 6300 4950 50  0000 C CNN
	1    6300 4950
	0    -1   -1   0   
$EndComp
$Comp
L +12V #PWR09
U 1 1 577B06E6
P 6250 5150
F 0 "#PWR09" H 6250 5000 50  0001 C CNN
F 1 "+12V" H 6250 5290 50  0000 C CNN
F 2 "" H 6250 5150 50  0000 C CNN
F 3 "" H 6250 5150 50  0000 C CNN
	1    6250 5150
	0    -1   -1   0   
$EndComp
$Comp
L GND #PWR010
U 1 1 577B070C
P 6350 5150
F 0 "#PWR010" H 6350 4900 50  0001 C CNN
F 1 "GND" H 6350 5000 50  0000 C CNN
F 2 "" H 6350 5150 50  0000 C CNN
F 3 "" H 6350 5150 50  0000 C CNN
	1    6350 5150
	1    0    0    -1  
$EndComp
Text GLabel 6500 1400 2    60   Input ~ 0
POL_DIR
Text GLabel 6500 1300 2    60   Input ~ 0
POL_STEP
Text GLabel 6500 1200 2    60   Input ~ 0
POL_ENA
$Comp
L CONN_01X03 P1
U 1 1 577B154F
P 800 1000
F 0 "P1" H 800 1200 50  0000 C CNN
F 1 "CONN_01X03" V 900 1000 50  0000 C CNN
F 2 "Connectors_Molex:Molex_KK_6410-03" H 800 1000 50  0001 C CNN
F 3 "" H 800 1000 50  0000 C CNN
	1    800  1000
	-1   0    0    1   
$EndComp
Text GLabel 1000 900  2    60   Input ~ 0
S1
$Comp
L GND #PWR011
U 1 1 577B16CB
P 1000 1100
F 0 "#PWR011" H 1000 850 50  0001 C CNN
F 1 "GND" H 1000 950 50  0000 C CNN
F 2 "" H 1000 1100 50  0000 C CNN
F 3 "" H 1000 1100 50  0000 C CNN
	1    1000 1100
	0    -1   -1   0   
$EndComp
$Comp
L +5V #PWR012
U 1 1 577B16F7
P 1000 1000
F 0 "#PWR012" H 1000 850 50  0001 C CNN
F 1 "+5V" H 1000 1140 50  0000 C CNN
F 2 "" H 1000 1000 50  0000 C CNN
F 3 "" H 1000 1000 50  0000 C CNN
	1    1000 1000
	0    1    1    0   
$EndComp
$Comp
L CONN_01X03 P2
U 1 1 577B17DB
P 1400 1000
F 0 "P2" H 1400 1200 50  0000 C CNN
F 1 "CONN_01X03" V 1500 1000 50  0000 C CNN
F 2 "Connectors_Molex:Molex_KK_6410-03" H 1400 1000 50  0001 C CNN
F 3 "" H 1400 1000 50  0000 C CNN
	1    1400 1000
	-1   0    0    1   
$EndComp
Text GLabel 1600 900  2    60   Input ~ 0
S2
$Comp
L GND #PWR013
U 1 1 577B17E2
P 1600 1100
F 0 "#PWR013" H 1600 850 50  0001 C CNN
F 1 "GND" H 1600 950 50  0000 C CNN
F 2 "" H 1600 1100 50  0000 C CNN
F 3 "" H 1600 1100 50  0000 C CNN
	1    1600 1100
	0    -1   -1   0   
$EndComp
$Comp
L +5V #PWR014
U 1 1 577B17E8
P 1600 1000
F 0 "#PWR014" H 1600 850 50  0001 C CNN
F 1 "+5V" H 1600 1140 50  0000 C CNN
F 2 "" H 1600 1000 50  0000 C CNN
F 3 "" H 1600 1000 50  0000 C CNN
	1    1600 1000
	0    1    1    0   
$EndComp
$Comp
L CONN_01X03 P5
U 1 1 577B1837
P 2000 1000
F 0 "P5" H 2000 1200 50  0000 C CNN
F 1 "CONN_01X03" V 2100 1000 50  0000 C CNN
F 2 "Connectors_Molex:Molex_KK_6410-03" H 2000 1000 50  0001 C CNN
F 3 "" H 2000 1000 50  0000 C CNN
	1    2000 1000
	-1   0    0    1   
$EndComp
Text GLabel 2200 900  2    60   Input ~ 0
S3
$Comp
L GND #PWR015
U 1 1 577B183E
P 2200 1100
F 0 "#PWR015" H 2200 850 50  0001 C CNN
F 1 "GND" H 2200 950 50  0000 C CNN
F 2 "" H 2200 1100 50  0000 C CNN
F 3 "" H 2200 1100 50  0000 C CNN
	1    2200 1100
	0    -1   -1   0   
$EndComp
$Comp
L +5V #PWR016
U 1 1 577B1844
P 2200 1000
F 0 "#PWR016" H 2200 850 50  0001 C CNN
F 1 "+5V" H 2200 1140 50  0000 C CNN
F 2 "" H 2200 1000 50  0000 C CNN
F 3 "" H 2200 1000 50  0000 C CNN
	1    2200 1000
	0    1    1    0   
$EndComp
$Comp
L CONN_01X03 P7
U 1 1 577B184A
P 2600 1000
F 0 "P7" H 2600 1200 50  0000 C CNN
F 1 "CONN_01X03" V 2700 1000 50  0000 C CNN
F 2 "Connectors_Molex:Molex_KK_6410-03" H 2600 1000 50  0001 C CNN
F 3 "" H 2600 1000 50  0000 C CNN
	1    2600 1000
	-1   0    0    1   
$EndComp
Text GLabel 2800 900  2    60   Input ~ 0
S4
$Comp
L GND #PWR017
U 1 1 577B1851
P 2800 1100
F 0 "#PWR017" H 2800 850 50  0001 C CNN
F 1 "GND" H 2800 950 50  0000 C CNN
F 2 "" H 2800 1100 50  0000 C CNN
F 3 "" H 2800 1100 50  0000 C CNN
	1    2800 1100
	0    -1   -1   0   
$EndComp
$Comp
L +5V #PWR018
U 1 1 577B1857
P 2800 1000
F 0 "#PWR018" H 2800 850 50  0001 C CNN
F 1 "+5V" H 2800 1140 50  0000 C CNN
F 2 "" H 2800 1000 50  0000 C CNN
F 3 "" H 2800 1000 50  0000 C CNN
	1    2800 1000
	0    1    1    0   
$EndComp
Text GLabel 5300 2250 0    60   Input ~ 0
S1
Text GLabel 5300 2350 0    60   Input ~ 0
S2
Text GLabel 5300 2450 0    60   Input ~ 0
S3
Text GLabel 5300 2550 0    60   Input ~ 0
S4
Wire Notes Line
	600  550  7250 550 
Wire Notes Line
	4450 1500 600  1500
Text Notes 700  1450 0    60   ~ 0
Conectores para adquisición de señales
$Comp
L L298 IC1
U 1 1 577B3374
P 1600 3950
F 0 "IC1" H 1250 4100 60  0000 C CNN
F 1 "L298" H 1950 4100 60  0000 C CNN
F 2 "TO_SOT_Packages_THT:Multiwatt_15_Vertical" H 1600 3950 60  0001 C CNN
F 3 "" H 1600 3950 60  0000 C CNN
	1    1600 3950
	1    0    0    -1  
$EndComp
$Comp
L D D2
U 1 1 577B37DF
P 3200 4100
F 0 "D2" H 3200 4200 50  0000 C CNN
F 1 "D" H 3200 4000 50  0000 C CNN
F 2 "Diodes_ThroughHole:Diode_DO-41_SOD81_Horizontal_RM10" H 3200 4100 50  0001 C CNN
F 3 "" H 3200 4100 50  0000 C CNN
	1    3200 4100
	0    1    1    0   
$EndComp
$Comp
L D D3
U 1 1 577B3908
P 3200 4600
F 0 "D3" H 3200 4700 50  0000 C CNN
F 1 "D" H 3200 4500 50  0000 C CNN
F 2 "Diodes_ThroughHole:Diode_DO-41_SOD81_Horizontal_RM10" H 3200 4600 50  0001 C CNN
F 3 "" H 3200 4600 50  0000 C CNN
	1    3200 4600
	0    1    1    0   
$EndComp
$Comp
L D D4
U 1 1 577B3B55
P 3400 4100
F 0 "D4" H 3400 4200 50  0000 C CNN
F 1 "D" H 3400 4000 50  0000 C CNN
F 2 "Diodes_ThroughHole:Diode_DO-41_SOD81_Horizontal_RM10" H 3400 4100 50  0001 C CNN
F 3 "" H 3400 4100 50  0000 C CNN
	1    3400 4100
	0    1    1    0   
$EndComp
$Comp
L D D5
U 1 1 577B3BB1
P 3400 4600
F 0 "D5" H 3400 4700 50  0000 C CNN
F 1 "D" H 3400 4500 50  0000 C CNN
F 2 "Diodes_ThroughHole:Diode_DO-41_SOD81_Horizontal_RM10" H 3400 4600 50  0001 C CNN
F 3 "" H 3400 4600 50  0000 C CNN
	1    3400 4600
	0    1    1    0   
$EndComp
$Comp
L CONN_01X02 P13
U 1 1 577B3BF9
P 3700 4350
F 0 "P13" H 3700 4500 50  0000 C CNN
F 1 "CONN_01X02" V 3800 4350 50  0000 C CNN
F 2 "Connect:bornier2" H 3700 4350 50  0001 C CNN
F 3 "" H 3700 4350 50  0000 C CNN
	1    3700 4350
	1    0    0    -1  
$EndComp
$Comp
L GND #PWR019
U 1 1 577B3CED
P 3300 4750
F 0 "#PWR019" H 3300 4500 50  0001 C CNN
F 1 "GND" H 3300 4600 50  0000 C CNN
F 2 "" H 3300 4750 50  0000 C CNN
F 3 "" H 3300 4750 50  0000 C CNN
	1    3300 4750
	1    0    0    -1  
$EndComp
Wire Wire Line
	3200 4750 3400 4750
Connection ~ 3300 4750
$Comp
L +12V #PWR020
U 1 1 577B3D8D
P 3300 3950
F 0 "#PWR020" H 3300 3800 50  0001 C CNN
F 1 "+12V" H 3300 4090 50  0000 C CNN
F 2 "" H 3300 3950 50  0000 C CNN
F 3 "" H 3300 3950 50  0000 C CNN
	1    3300 3950
	1    0    0    -1  
$EndComp
Wire Wire Line
	3200 3950 3400 3950
Connection ~ 3300 3950
Text GLabel 3100 4250 0    60   Input ~ 0
MOT_CC1
Text GLabel 3100 4450 0    60   Input ~ 0
MOT_CC2
$Comp
L GND #PWR021
U 1 1 577B447D
P 900 4500
F 0 "#PWR021" H 900 4250 50  0001 C CNN
F 1 "GND" H 900 4350 50  0000 C CNN
F 2 "" H 900 4500 50  0000 C CNN
F 3 "" H 900 4500 50  0000 C CNN
	1    900  4500
	1    0    0    -1  
$EndComp
$Comp
L GND #PWR022
U 1 1 577B44D7
P 2300 4500
F 0 "#PWR022" H 2300 4250 50  0001 C CNN
F 1 "GND" H 2300 4350 50  0000 C CNN
F 2 "" H 2300 4500 50  0000 C CNN
F 3 "" H 2300 4500 50  0000 C CNN
	1    2300 4500
	1    0    0    -1  
$EndComp
$Comp
L GND #PWR023
U 1 1 577B452A
P 1600 4650
F 0 "#PWR023" H 1600 4400 50  0001 C CNN
F 1 "GND" H 1600 4500 50  0000 C CNN
F 2 "" H 1600 4650 50  0000 C CNN
F 3 "" H 1600 4650 50  0000 C CNN
	1    1600 4650
	1    0    0    -1  
$EndComp
$Comp
L +12V #PWR024
U 1 1 577B4567
P 1200 4650
F 0 "#PWR024" H 1200 4500 50  0001 C CNN
F 1 "+12V" H 1200 4790 50  0000 C CNN
F 2 "" H 1200 4650 50  0000 C CNN
F 3 "" H 1200 4650 50  0000 C CNN
	1    1200 4650
	-1   0    0    1   
$EndComp
$Comp
L +5V #PWR025
U 1 1 577B45AB
P 1700 4500
F 0 "#PWR025" H 1700 4350 50  0001 C CNN
F 1 "+5V" H 1700 4640 50  0000 C CNN
F 2 "" H 1700 4500 50  0000 C CNN
F 3 "" H 1700 4500 50  0000 C CNN
	1    1700 4500
	-1   0    0    1   
$EndComp
Text GLabel 1000 4650 3    39   Input ~ 0
MOT_CC2
Text GLabel 2200 4650 3    39   Input ~ 0
MOT_CC2
Text GLabel 1100 4500 3    39   Input ~ 0
MOT_CC1
Text GLabel 2100 4500 3    39   Input ~ 0
MOT_CC1
Text GLabel 1300 4500 3    39   Input ~ 0
MOT_CC_IN1
Text GLabel 2000 4650 3    39   Input ~ 0
MOT_CC_IN1
Text GLabel 1500 4500 3    39   Input ~ 0
MOT_CC_IN2
Text GLabel 1800 4650 3    39   Input ~ 0
MOT_CC_IN2
Text GLabel 1400 4650 3    39   Input ~ 0
MOT_CC_ENA
Text GLabel 1900 4500 3    39   Input ~ 0
MOT_CC_ENA
Text GLabel 6500 2200 2    60   Input ~ 0
MOT_CC_IN1
Text GLabel 6500 2100 2    60   Input ~ 0
MOT_CC_IN2
Text GLabel 6500 2000 2    60   Input ~ 0
MOT_CC_ENA
Wire Wire Line
	3500 4300 3200 4300
Wire Wire Line
	3200 4250 3200 4450
Connection ~ 3200 4300
Wire Wire Line
	3200 4250 3100 4250
Wire Wire Line
	3400 4450 3100 4450
Wire Wire Line
	3400 4250 3400 4450
Wire Wire Line
	3500 4400 3400 4400
Connection ~ 3400 4400
Text GLabel 1300 5250 2    60   Input ~ 0
MOT_CC_IN1
Text GLabel 1300 5400 2    60   Input ~ 0
MOT_CC_IN2
Text GLabel 1300 5550 2    60   Input ~ 0
MOT_CC_ENA
$Comp
L R R1
U 1 1 577B712F
P 1100 2550
F 0 "R1" V 1180 2550 50  0000 C CNN
F 1 "4k7" V 1100 2550 50  0000 C CNN
F 2 "Resistors_ThroughHole:Resistor_Horizontal_RM10mm" V 1030 2550 50  0001 C CNN
F 3 "" H 1100 2550 50  0000 C CNN
	1    1100 2550
	1    0    0    -1  
$EndComp
$Comp
L R R7
U 1 1 577B7135
P 1250 2550
F 0 "R7" V 1330 2550 50  0000 C CNN
F 1 "4k7" V 1250 2550 50  0000 C CNN
F 2 "Resistors_ThroughHole:Resistor_Horizontal_RM10mm" V 1180 2550 50  0001 C CNN
F 3 "" H 1250 2550 50  0000 C CNN
	1    1250 2550
	1    0    0    -1  
$EndComp
$Comp
L GND #PWR026
U 1 1 577B713B
P 1250 2700
F 0 "#PWR026" H 1250 2450 50  0001 C CNN
F 1 "GND" H 1250 2550 50  0000 C CNN
F 2 "" H 1250 2700 50  0000 C CNN
F 3 "" H 1250 2700 50  0000 C CNN
	1    1250 2700
	1    0    0    -1  
$EndComp
Wire Wire Line
	1100 2700 1250 2700
Connection ~ 1100 2700
$Comp
L R R8
U 1 1 577B7147
P 1400 2550
F 0 "R8" V 1480 2550 50  0000 C CNN
F 1 "4k7" V 1400 2550 50  0000 C CNN
F 2 "Resistors_ThroughHole:Resistor_Horizontal_RM10mm" V 1330 2550 50  0001 C CNN
F 3 "" H 1400 2550 50  0000 C CNN
	1    1400 2550
	1    0    0    -1  
$EndComp
Text GLabel 1100 2400 1    60   Input ~ 0
POL_DIR
Text GLabel 1250 2400 1    60   Input ~ 0
POL_STEP
Text GLabel 1400 2400 1    60   Input ~ 0
POL_ENA
$Comp
L +5V #PWR027
U 1 1 577B7DCA
P 2400 2950
F 0 "#PWR027" H 2400 2800 50  0001 C CNN
F 1 "+5V" H 2400 3090 50  0000 C CNN
F 2 "" H 2400 2950 50  0000 C CNN
F 3 "" H 2400 2950 50  0000 C CNN
	1    2400 2950
	0    1    1    0   
$EndComp
$Comp
L +5V #PWR028
U 1 1 577B7E2D
P 2900 2950
F 0 "#PWR028" H 2900 2800 50  0001 C CNN
F 1 "+5V" H 2900 3090 50  0000 C CNN
F 2 "" H 2900 2950 50  0000 C CNN
F 3 "" H 2900 2950 50  0000 C CNN
	1    2900 2950
	0    1    1    0   
$EndComp
$Comp
L +5V #PWR029
U 1 1 577B7E89
P 3400 2950
F 0 "#PWR029" H 3400 2800 50  0001 C CNN
F 1 "+5V" H 3400 3090 50  0000 C CNN
F 2 "" H 3400 2950 50  0000 C CNN
F 3 "" H 3400 2950 50  0000 C CNN
	1    3400 2950
	0    1    1    0   
$EndComp
$Comp
L R R2
U 1 1 577B98B4
P 1150 5250
F 0 "R2" V 1230 5250 50  0000 C CNN
F 1 "4k7" V 1150 5250 50  0000 C CNN
F 2 "Resistors_ThroughHole:Resistor_Horizontal_RM10mm" V 1080 5250 50  0001 C CNN
F 3 "" H 1150 5250 50  0000 C CNN
	1    1150 5250
	0    1    1    0   
$EndComp
$Comp
L R R3
U 1 1 577B98BA
P 1150 5400
F 0 "R3" V 1230 5400 50  0000 C CNN
F 1 "4k7" V 1150 5400 50  0000 C CNN
F 2 "Resistors_ThroughHole:Resistor_Horizontal_RM10mm" V 1080 5400 50  0001 C CNN
F 3 "" H 1150 5400 50  0000 C CNN
	1    1150 5400
	0    1    1    0   
$EndComp
$Comp
L GND #PWR030
U 1 1 577B98C0
P 1000 5400
F 0 "#PWR030" H 1000 5150 50  0001 C CNN
F 1 "GND" H 1000 5250 50  0000 C CNN
F 2 "" H 1000 5400 50  0000 C CNN
F 3 "" H 1000 5400 50  0000 C CNN
	1    1000 5400
	0    1    1    0   
$EndComp
Wire Wire Line
	1000 5250 1000 5550
Connection ~ 1000 5250
$Comp
L R R4
U 1 1 577B98C9
P 1150 5550
F 0 "R4" V 1230 5550 50  0000 C CNN
F 1 "4k7" V 1150 5550 50  0000 C CNN
F 2 "Resistors_ThroughHole:Resistor_Horizontal_RM10mm" V 1080 5550 50  0001 C CNN
F 3 "" H 1150 5550 50  0000 C CNN
	1    1150 5550
	0    1    1    0   
$EndComp
Connection ~ 1000 5400
Connection ~ 1000 5550
$Comp
L +5V #PWR031
U 1 1 577BA20C
P 1400 2700
F 0 "#PWR031" H 1400 2550 50  0001 C CNN
F 1 "+5V" H 1400 2840 50  0000 C CNN
F 2 "" H 1400 2700 50  0000 C CNN
F 3 "" H 1400 2700 50  0000 C CNN
	1    1400 2700
	-1   0    0    1   
$EndComp
Text Notes 650  3100 0    39   ~ 0
Pin ENA con pull up: motor apagado por defecto.\nPara usar el motor hay que poner el pin en LOW.
Wire Notes Line
	4450 3300 600  3300
Text Notes 700  1650 0    60   ~ 0
Pololu
Wire Notes Line
	4450 5800 600  5800
Text Notes 700  3450 0    60   ~ 0
L298
$Comp
L R R6
U 1 1 577C2EB6
P 4900 4950
F 0 "R6" V 4980 4950 50  0000 C CNN
F 1 "330" V 4900 4950 50  0000 C CNN
F 2 "Resistors_ThroughHole:Resistor_Horizontal_RM10mm" V 4830 4950 50  0001 C CNN
F 3 "" H 4900 4950 50  0000 C CNN
	1    4900 4950
	0    1    1    0   
$EndComp
$Comp
L GND #PWR032
U 1 1 577C2EBC
P 5450 4950
F 0 "#PWR032" H 5450 4700 50  0001 C CNN
F 1 "GND" H 5450 4800 50  0000 C CNN
F 2 "" H 5450 4950 50  0000 C CNN
F 3 "" H 5450 4950 50  0000 C CNN
	1    5450 4950
	0    -1   -1   0   
$EndComp
$Comp
L +5V #PWR033
U 1 1 577C2EC2
P 4750 4950
F 0 "#PWR033" H 4750 4800 50  0001 C CNN
F 1 "+5V" H 4750 5090 50  0000 C CNN
F 2 "" H 4750 4950 50  0000 C CNN
F 3 "" H 4750 4950 50  0000 C CNN
	1    4750 4950
	0    -1   -1   0   
$EndComp
$Comp
L CONN_01X02 P3
U 1 1 577C303E
P 5250 5150
F 0 "P3" H 5250 5300 50  0000 C CNN
F 1 "CONN_01X02" V 5350 5150 50  0000 C CNN
F 2 "Connectors_Molex:Molex_KK-6410-02_02x2.54mm_Straight" H 5250 5150 50  0001 C CNN
F 3 "" H 5250 5150 50  0000 C CNN
	1    5250 5150
	0    1    1    0   
$EndComp
Wire Wire Line
	5200 4950 5050 4950
Wire Wire Line
	5300 4950 5450 4950
Text Notes 4500 4700 0    60   ~ 0
Led Gabinete
Text Notes 5900 4700 0    60   ~ 0
Conectores de Alimentación
$Comp
L CONN_01X04 P14
U 1 1 577B2769
P 6700 3600
F 0 "P14" H 6700 3850 50  0000 C CNN
F 1 "CONN_01X04" V 6800 3600 50  0000 C CNN
F 2 "Connectors_Molex:Molex_KK_6410-04" H 6700 3600 50  0001 C CNN
F 3 "" H 6700 3600 50  0000 C CNN
	1    6700 3600
	1    0    0    -1  
$EndComp
$Comp
L CONN_01X04 P15
U 1 1 577B29CA
P 6700 4150
F 0 "P15" H 6700 4400 50  0000 C CNN
F 1 "CONN_01X04" V 6800 4150 50  0000 C CNN
F 2 "Connectors_Molex:Molex_KK_6410-04" H 6700 4150 50  0001 C CNN
F 3 "" H 6700 4150 50  0000 C CNN
	1    6700 4150
	1    0    0    -1  
$EndComp
$Comp
L +5V #PWR034
U 1 1 577B2ABA
P 6500 3650
F 0 "#PWR034" H 6500 3500 50  0001 C CNN
F 1 "+5V" H 6500 3790 50  0000 C CNN
F 2 "" H 6500 3650 50  0000 C CNN
F 3 "" H 6500 3650 50  0000 C CNN
	1    6500 3650
	0    -1   -1   0   
$EndComp
$Comp
L +5V #PWR035
U 1 1 577B2B35
P 6500 4200
F 0 "#PWR035" H 6500 4050 50  0001 C CNN
F 1 "+5V" H 6500 4340 50  0000 C CNN
F 2 "" H 6500 4200 50  0000 C CNN
F 3 "" H 6500 4200 50  0000 C CNN
	1    6500 4200
	0    -1   -1   0   
$EndComp
$Comp
L GND #PWR036
U 1 1 577B2BFB
P 6500 3750
F 0 "#PWR036" H 6500 3500 50  0001 C CNN
F 1 "GND" H 6500 3600 50  0000 C CNN
F 2 "" H 6500 3750 50  0000 C CNN
F 3 "" H 6500 3750 50  0000 C CNN
	1    6500 3750
	0    1    1    0   
$EndComp
$Comp
L GND #PWR037
U 1 1 577B2CE9
P 6500 4300
F 0 "#PWR037" H 6500 4050 50  0001 C CNN
F 1 "GND" H 6500 4150 50  0000 C CNN
F 2 "" H 6500 4300 50  0000 C CNN
F 3 "" H 6500 4300 50  0000 C CNN
	1    6500 4300
	0    1    1    0   
$EndComp
Text GLabel 6500 3450 0    60   Input ~ 0
USB1_1
Text GLabel 6500 3550 0    60   Input ~ 0
USB1_2
Text GLabel 6500 4000 0    60   Input ~ 0
USB2_1
Text GLabel 6500 4100 0    60   Input ~ 0
USB2_2
Text GLabel 5300 1850 0    60   Input ~ 0
USB1_1
Text GLabel 5300 1950 0    60   Input ~ 0
USB1_2
Text GLabel 5300 2050 0    60   Input ~ 0
USB2_1
Text GLabel 5300 2150 0    60   Input ~ 0
USB2_2
$Comp
L R R5
U 1 1 577B62F4
P 5250 3450
F 0 "R5" V 5330 3450 50  0000 C CNN
F 1 "4k7" V 5250 3450 50  0000 C CNN
F 2 "Resistors_ThroughHole:Resistor_Horizontal_RM10mm" V 5180 3450 50  0001 C CNN
F 3 "" H 5250 3450 50  0000 C CNN
	1    5250 3450
	0    1    1    0   
$EndComp
$Comp
L R R14
U 1 1 577B62FA
P 5250 3600
F 0 "R14" V 5330 3600 50  0000 C CNN
F 1 "4k7" V 5250 3600 50  0000 C CNN
F 2 "Resistors_ThroughHole:Resistor_Horizontal_RM10mm" V 5180 3600 50  0001 C CNN
F 3 "" H 5250 3600 50  0000 C CNN
	1    5250 3600
	0    1    1    0   
$EndComp
$Comp
L GND #PWR038
U 1 1 577B6300
P 5100 3600
F 0 "#PWR038" H 5100 3350 50  0001 C CNN
F 1 "GND" H 5100 3450 50  0000 C CNN
F 2 "" H 5100 3600 50  0000 C CNN
F 3 "" H 5100 3600 50  0000 C CNN
	1    5100 3600
	0    1    1    0   
$EndComp
$Comp
L R R15
U 1 1 577B6309
P 5250 3750
F 0 "R15" V 5330 3750 50  0000 C CNN
F 1 "4k7" V 5250 3750 50  0000 C CNN
F 2 "Resistors_ThroughHole:Resistor_Horizontal_RM10mm" V 5180 3750 50  0001 C CNN
F 3 "" H 5250 3750 50  0000 C CNN
	1    5250 3750
	0    1    1    0   
$EndComp
$Comp
L R R16
U 1 1 577B630F
P 5250 3900
F 0 "R16" V 5330 3900 50  0000 C CNN
F 1 "4k7" V 5250 3900 50  0000 C CNN
F 2 "Resistors_ThroughHole:Resistor_Horizontal_RM10mm" V 5180 3900 50  0001 C CNN
F 3 "" H 5250 3900 50  0000 C CNN
	1    5250 3900
	0    1    1    0   
$EndComp
Connection ~ 5100 3600
Connection ~ 5100 3750
Wire Wire Line
	5100 3450 5100 3900
Text GLabel 5400 3450 2    60   Input ~ 0
USB1_1
Text GLabel 5400 3600 2    60   Input ~ 0
USB1_2
Text GLabel 5400 3750 2    60   Input ~ 0
USB2_1
Text GLabel 5400 3900 2    60   Input ~ 0
USB2_2
Wire Notes Line
	7250 550  7250 5450
Wire Notes Line
	7250 3000 4450 3000
Text Notes 4550 700  0    60   ~ 0
Arduino Nano
Wire Notes Line
	4450 4500 7250 4500
Text Notes 4550 3150 0    60   ~ 0
Conectores Tipo USB
Wire Notes Line
	7250 5450 4450 5450
Wire Notes Line
	5800 4500 5800 5450
Wire Notes Line
	600  5800 600  550 
$Comp
L REG_SW_SD U2
U 1 1 5813AF46
P 3800 1000
F 0 "U2" H 3800 750 60  0000 C CNN
F 1 "REG_SW_SD" H 3800 1200 60  0000 C CNN
F 2 "REG_SWITCHING:REG_SW_SD" H 3700 700 60  0001 C CNN
F 3 "" H 3700 700 60  0000 C CNN
	1    3800 1000
	1    0    0    -1  
$EndComp
$Comp
L +12V #PWR039
U 1 1 5813B129
P 3350 950
F 0 "#PWR039" H 3350 800 50  0001 C CNN
F 1 "+12V" H 3350 1090 50  0000 C CNN
F 2 "" H 3350 950 50  0000 C CNN
F 3 "" H 3350 950 50  0000 C CNN
	1    3350 950 
	1    0    0    -1  
$EndComp
$Comp
L GND #PWR040
U 1 1 5813B18D
P 3350 1050
F 0 "#PWR040" H 3350 800 50  0001 C CNN
F 1 "GND" H 3350 900 50  0000 C CNN
F 2 "" H 3350 1050 50  0000 C CNN
F 3 "" H 3350 1050 50  0000 C CNN
	1    3350 1050
	1    0    0    -1  
$EndComp
$Comp
L +5V #PWR041
U 1 1 5813B1F1
P 4250 950
F 0 "#PWR041" H 4250 800 50  0001 C CNN
F 1 "+5V" H 4250 1090 50  0000 C CNN
F 2 "" H 4250 950 50  0000 C CNN
F 3 "" H 4250 950 50  0000 C CNN
	1    4250 950 
	1    0    0    -1  
$EndComp
$Comp
L GND #PWR042
U 1 1 5813B255
P 4250 1050
F 0 "#PWR042" H 4250 800 50  0001 C CNN
F 1 "GND" H 4250 900 50  0000 C CNN
F 2 "" H 4250 1050 50  0000 C CNN
F 3 "" H 4250 1050 50  0000 C CNN
	1    4250 1050
	1    0    0    -1  
$EndComp
$Comp
L CONN_01X01 P16
U 1 1 5813D192
P 6600 7250
F 0 "P16" H 6600 7350 50  0000 C CNN
F 1 "CONN_01X01" V 6700 7250 50  0000 C CNN
F 2 "Connect:1pin" H 6600 7250 50  0001 C CNN
F 3 "" H 6600 7250 50  0000 C CNN
	1    6600 7250
	1    0    0    -1  
$EndComp
$Comp
L CONN_01X01 P17
U 1 1 5813D435
P 6600 7400
F 0 "P17" H 6600 7500 50  0000 C CNN
F 1 "CONN_01X01" V 6700 7400 50  0000 C CNN
F 2 "Connect:1pin" H 6600 7400 50  0001 C CNN
F 3 "" H 6600 7400 50  0000 C CNN
	1    6600 7400
	1    0    0    -1  
$EndComp
$Comp
L CONN_01X01 P11
U 1 1 5813D4B0
P 6150 7400
F 0 "P11" H 6150 7500 50  0000 C CNN
F 1 "CONN_01X01" V 6250 7400 50  0000 C CNN
F 2 "Connect:1pin" H 6150 7400 50  0001 C CNN
F 3 "" H 6150 7400 50  0000 C CNN
	1    6150 7400
	-1   0    0    1   
$EndComp
$Comp
L CONN_01X01 P10
U 1 1 5813D53E
P 6150 7250
F 0 "P10" H 6150 7350 50  0000 C CNN
F 1 "CONN_01X01" V 6250 7250 50  0000 C CNN
F 2 "Connect:1pin" H 6150 7250 50  0001 C CNN
F 3 "" H 6150 7250 50  0000 C CNN
	1    6150 7250
	-1   0    0    1   
$EndComp
Wire Notes Line
	3100 550  3100 1500
Wire Notes Line
	4450 550  4450 5800
$Comp
L CONN_01X04 P18
U 1 1 58178459
P 3750 6400
F 0 "P18" H 3750 6650 50  0000 C CNN
F 1 "CONN_01X04" V 3850 6400 50  0000 C CNN
F 2 "Connectors_Molex:Molex_KK-6410-04_04x2.54mm_Straight" H 3750 6400 50  0001 C CNN
F 3 "" H 3750 6400 50  0000 C CNN
	1    3750 6400
	1    0    0    -1  
$EndComp
$Comp
L R R9
U 1 1 581785DD
P 3400 6450
F 0 "R9" V 3480 6450 50  0000 C CNN
F 1 "R" V 3400 6450 50  0000 C CNN
F 2 "Resistors_THT:Resistor_Horizontal_RM10mm" V 3330 6450 50  0001 C CNN
F 3 "" H 3400 6450 50  0000 C CNN
	1    3400 6450
	0    -1   -1   0   
$EndComp
$Comp
L R R10
U 1 1 58178676
P 3400 6350
F 0 "R10" V 3480 6350 50  0000 C CNN
F 1 "R" V 3400 6350 50  0000 C CNN
F 2 "Resistors_THT:Resistor_Horizontal_RM10mm" V 3330 6350 50  0001 C CNN
F 3 "" H 3400 6350 50  0000 C CNN
	1    3400 6350
	0    -1   -1   0   
$EndComp
$Comp
L R R11
U 1 1 581786FB
P 3400 6250
F 0 "R11" V 3480 6250 50  0000 C CNN
F 1 "R" V 3400 6250 50  0000 C CNN
F 2 "Resistors_THT:Resistor_Horizontal_RM10mm" V 3330 6250 50  0001 C CNN
F 3 "" H 3400 6250 50  0000 C CNN
	1    3400 6250
	0    -1   -1   0   
$EndComp
$Comp
L GND #PWR043
U 1 1 5817875D
P 3550 6550
F 0 "#PWR043" H 3550 6300 50  0001 C CNN
F 1 "GND" H 3550 6400 50  0000 C CNN
F 2 "" H 3550 6550 50  0000 C CNN
F 3 "" H 3550 6550 50  0000 C CNN
	1    3550 6550
	1    0    0    -1  
$EndComp
Text GLabel 3250 6350 0    60   Input ~ 0
D6
Text GLabel 3250 6250 0    60   Input ~ 0
D5
Text GLabel 3250 6450 0    60   Input ~ 0
D9
Text GLabel 6500 1900 2    60   Input ~ 0
D9
Text GLabel 6500 1600 2    60   Input ~ 0
D6
Text GLabel 6500 1500 2    60   Input ~ 0
D5
$EndSCHEMATC
